Name,Sex,Equipment,Division,BodyweightKg,WeightClassKg,Squat1Kg,Squat2Kg,Squat3Kg,Best3SquatKg,Bench1Kg,Bench2Kg,Bench3Kg,Best3BenchKg,Deadlift1Kg,Deadlift2Kg,Deadlift3Kg,Best3DeadliftKg,TotalKg,Event,Place,BirthDate
Sharon Laffan,F,Raw,FR-O,46.95,47,79,83,-85,83,51,54,-56,54,110,115,120,120,257,SBD,1,
Sara Waitzer,F,Raw,FR-O,51.45,52,92.5,97,99,99,65,68,71,71,125,132.5,136.5,136.5,306.5,SBD,1,
Alysha Simmons,F,Raw,FR-O,56.95,57,110,-120,-125,110,45,50,55,55,137.5,145,-150,145,310,SBD,1,
Jeremy Fraser,M,Raw,MR-O,82.9,83,182.5,192.5,202.5,202.5,122.5,130,132.5,132.5,210,220,230,230,565,SBD,2,
Daniel Hill,M,Raw,MR-O,92,93,187.5,197.5,207.5,207.5,137.5,145,148.5,148.5,230,245,252.5,252.5,608.5,SBD,1,
Daniel Reardon,M,Raw,MR-O,145.6,120+,255,270,285.5,285.5,180,190,200,200,260,280,300.5,300.5,786,SBD,1,
