Division,WeightClassKg,Place,Name,Team,BodyweightKg,Best3SquatKg,Best3BenchKg,Best3DeadliftKg,TotalKg,Equipment,Event,Sex
Boys,51.71,1,Darius Rivera,Princeton,51.71,136.08,81.65,158.76,376.48,Single-ply,SBD,M
Boys,51.71,2,Skyler Packard,McKinney,49.67,108.86,61.23,120.2,290.3,Single-ply,SBD,M
Boys,51.71,3,Gerald Van Ess,McKinney North,50.12,102.06,58.97,120.2,281.23,Single-ply,SBD,M
Boys,51.71,4,Bryan Heyns,McKinney North,47.63,74.84,49.9,106.59,231.33,Single-ply,SBD,M
Boys,55.79,1,Toni Ogunsola,Frisco,55.79,154.22,83.91,154.22,392.36,Single-ply,SBD,M
Boys,55.79,2,Brandon Thomas,McKinney North,53.07,145.15,74.84,156.49,376.48,Single-ply,SBD,M
Boys,55.79,3,Michael Robason,Frisco Wakeland,54.88,156.49,70.31,131.54,358.34,Single-ply,SBD,M
Boys,55.79,4,Andrew Wilson,Frisco Wakeland,55.79,117.93,72.57,129.27,319.78,Single-ply,SBD,M
Boys,55.79,5,Michael Laday,Richardson Pearce,55.57,97.52,61.23,111.13,269.89,Single-ply,SBD,M
Boys,55.79,6,Carson Keller,McKinney North,55.79,92.99,52.16,115.67,260.82,Single-ply,SBD,M
Boys,55.79,7,Jonney Geter,McKinney,55.79,92.99,65.77,102.06,260.82,Single-ply,SBD,M
Boys,55.79,DQ,Chris Raine,Frisco Liberty,52.39,92.99,,,,Single-ply,SBD,M
Boys,59.87,1,Demitri Sommer,Lewisville The Colony,59.87,167.83,74.84,183.7,426.38,Single-ply,SBD,M
Boys,59.87,2,Nyal Barnes,Allen,59.42,117.93,68.04,113.4,299.37,Single-ply,SBD,M
Boys,59.87,3,Reese Darrell,Frisco Liberty,58.29,92.99,70.31,104.33,267.62,Single-ply,SBD,M
Boys,67.13,1,Bradley Beck,McKinney,65.77,181.44,120.2,192.78,494.42,Single-ply,SBD,M
Boys,67.13,2,Carlos Bravo,Lewisville The Colony,63.73,183.7,102.06,192.78,478.54,Single-ply,SBD,M
Boys,67.13,3,Stefan Sommer,Lewisville The Colony,64.41,174.63,97.52,192.78,464.93,Single-ply,SBD,M
Boys,67.13,4,Dustin Louth,Princeton,62.6,170.1,70.31,195.04,435.45,Single-ply,SBD,M
Boys,67.13,5,Chester Lee,Frisco Heritage,66.45,147.42,111.13,165.56,424.11,Single-ply,SBD,M
Boys,67.13,6,Nick Baril,Frisco Centennial,66.22,163.29,102.06,154.22,419.57,Single-ply,SBD,M
Boys,67.13,7,Brady Adams,Frisco Wakeland,66,149.69,90.72,151.95,392.36,Single-ply,SBD,M
Boys,67.13,8,Re Knight,Frisco Centennial,63.05,158.76,92.99,131.54,383.29,Single-ply,SBD,M
Boys,67.13,9,Brock Merrick,McKinney,63.05,145.15,81.65,156.49,383.29,Single-ply,SBD,M
Boys,67.13,10,Stephan Brooks,Lewisville The Colony,63.5,129.27,83.91,170.1,383.29,Single-ply,SBD,M
Boys,67.13,11,Chase Stout,Frisco Liberty,62.37,129.27,90.72,158.76,378.75,Single-ply,SBD,M
Boys,67.13,12,Jalen Henry,Allen,65.54,138.35,79.38,149.69,367.41,Single-ply,SBD,M
Boys,67.13,13,Zach Drogosch,Allen,67.13,133.81,74.84,129.27,337.93,Single-ply,SBD,M
Boys,67.13,14,Austin Fugina,Frisco Centennial,63.96,122.47,74.84,127.01,324.32,Single-ply,SBD,M
Boys,67.13,15,Robert Alvarado,Richardson Pearce,64.41,102.06,90.72,102.06,294.84,Single-ply,SBD,M
Boys,67.13,16,Jack Gann,Richardson Pearce,65.54,97.52,68.04,120.2,285.76,Single-ply,SBD,M
Boys,67.13,17,Blake Weaver,Frisco Heritage,62.14,90.72,61.23,108.86,260.82,Single-ply,SBD,M
Boys,67.13,DQ,Savon Miles,Princeton,66.68,151.95,,,,Single-ply,SBD,M
Boys,74.84,1,Marcus Ward,Allen,73.03,213.19,124.74,199.58,537.51,Single-ply,SBD,M
Boys,74.84,2,Mason Pierce,Frisco Centennial,72.35,190.51,117.93,190.51,498.95,Single-ply,SBD,M
Boys,74.84,3,Royce Richichi,Lewisville The Colony,73.94,197.31,104.33,185.97,487.61,Single-ply,SBD,M
Boys,74.84,4,Pat White,Lewisville The Colony,68.04,181.44,90.72,201.85,474,Single-ply,SBD,M
Boys,74.84,5,Michael Jacob #3,Allen,72.57,145.15,90.72,163.29,399.16,Single-ply,SBD,M
Boys,74.84,6,Logan Miller,Frisco Centennial,73.71,142.88,88.45,154.22,385.55,Single-ply,SBD,M
Boys,74.84,7,Clay Lambert,McKinney North,73.48,142.88,90.72,149.69,383.29,Single-ply,SBD,M
Boys,74.84,8,Taylor Fann,McKinney Boyd,68.72,142.88,77.11,142.88,362.87,Single-ply,SBD,M
Boys,74.84,9,Nic Hintz,Frisco Heritage,74.84,133.81,79.38,142.88,356.07,Single-ply,SBD,M
Boys,74.84,10,Dominic Reyes,Richardson Pearce,67.59,129.27,95.25,127.01,351.53,Single-ply,SBD,M
Boys,74.84,11,Neal Botteron,Frisco Heritage,74.84,113.4,104.33,129.27,347,Single-ply,SBD,M
Boys,74.84,12,Hayden Pierce,Frisco Heritage,72.57,124.74,72.57,131.54,328.85,Single-ply,SBD,M
Boys,74.84,13,Michael Carpin,Frisco Heritage,71.21,88.45,65.77,108.86,263.08,Single-ply,SBD,M
Boys,74.84,14,Jake LoGrasso,Frisco Heritage,69.63,86.18,61.23,106.59,254.01,Single-ply,SBD,M
Boys,74.84,DQ,Luis Orozco,McKinney North,74.39,158.76,,,,Single-ply,SBD,M
Boys,74.84,DQ,Dedrick Scrivens,McKinney Boyd,74.84,131.54,,,,Single-ply,SBD,M
Boys,74.84,DQ,Dalton Walls,Frisco Wakeland,74.84,167.83,,,,Single-ply,SBD,M
Boys,74.84,DQ,Curtis Flowers,Frisco,68.95,142.88,,,,Single-ply,SBD,M
Boys,82.1,1,Collin Charles,Frisco Heritage,79.38,208.65,140.61,240.4,589.67,Single-ply,SBD,M
Boys,82.1,2,Justin Jones,McKinney North,79.15,195.04,111.13,206.38,512.56,Single-ply,SBD,M
Boys,82.1,3,Cameron Hartsfield,Allen,81.65,192.78,111.13,204.12,508.02,Single-ply,SBD,M
Boys,82.1,4,Frank Perdomo,Lewisville The Colony,75.75,179.17,99.79,204.12,483.08,Single-ply,SBD,M
Boys,82.1,5,Dalton Harris,McKinney,81.92,190.51,106.59,172.37,469.47,Single-ply,SBD,M
Boys,82.1,6,Jason Cho,Richardson Pearce,82.01,158.76,117.93,181.44,458.13,Single-ply,SBD,M
Boys,82.1,7,Chris Hendricks,Frisco Wakeland,82.1,170.1,97.52,188.24,455.86,Single-ply,SBD,M
Boys,82.1,8,Nick Ramona,McKinney Boyd,81.19,165.56,104.33,183.7,453.59,Single-ply,SBD,M
Boys,82.1,9,Abraham Garcia,McKinney North,80.29,165.56,95.25,183.7,444.52,Single-ply,SBD,M
Boys,82.1,10,Jad Jabary,Allen,77.11,154.22,117.93,165.56,437.72,Single-ply,SBD,M
Boys,82.1,11,Blair Swanner,Frisco Centennial,78.02,158.76,95.25,163.29,417.3,Single-ply,SBD,M
Boys,82.1,12,Justin McVeigh,Frisco Liberty,79.2,142.88,111.13,151.95,405.97,Single-ply,SBD,M
Boys,82.1,13,Chase Keeland,Frisco Centennial,77.56,158.76,92.99,149.69,401.43,Single-ply,SBD,M
Boys,82.1,14,Robert Merryfield,Frisco Heritage,76.66,142.88,86.18,156.49,385.55,Single-ply,SBD,M
Boys,82.1,15,David Koenig,Frisco Lone Star,78.61,113.4,83.91,124.74,322.05,Single-ply,SBD,M
Boys,82.1,DQ,Jadin Lewis,Frisco Centennial,78.93,163.29,,,,Single-ply,SBD,M
Boys,82.1,DQ,Conner Crane,Frisco Wakeland,80.15,,,,,Single-ply,SBD,M
Boys,82.1,DQ,Matt Dodson,McKinney Boyd,76.43,142.88,,,,Single-ply,SBD,M
Boys,89.81,1,Michael Denton,Lewisville The Colony,85.91,233.6,97.52,233.6,564.72,Single-ply,SBD,M
Boys,89.81,2,Erick Perez,Frisco Liberty,89.04,204.12,136.08,195.04,535.24,Single-ply,SBD,M
Boys,89.81,3,Corbin Diaz,Frisco Lone Star,84.19,199.58,140.61,185.97,526.17,Single-ply,SBD,M
Boys,89.81,4,Nick Sepper,Frisco Wakeland,89.58,204.12,113.4,183.7,501.22,Single-ply,SBD,M
Boys,89.81,5,Sean Yoo,McKinney North,89.81,195.04,106.59,188.24,489.88,Single-ply,SBD,M
Boys,99.79,6,Cj Bryant,Princeton,89.9,197.31,113.4,179.17,489.88,Single-ply,SBD,M
Boys,89.81,7,Frank Jessie,Frisco,85.73,165.56,138.35,181.44,485.34,Single-ply,SBD,M
Boys,89.81,8,Trenton Williams,Princeton,84.91,174.63,106.59,172.37,453.59,Single-ply,SBD,M
Boys,89.81,9,Payne Matiseik,McKinney Boyd,89.77,172.37,117.93,163.29,453.59,Single-ply,SBD,M
Boys,89.81,10,Payton Thompson,Princeton,88.59,163.29,102.06,176.9,442.25,Single-ply,SBD,M
Boys,89.81,11,Travis Wendt,Frisco Liberty,88.45,156.49,124.74,154.22,435.45,Single-ply,SBD,M
Boys,89.81,12,Donovan Baca,Frisco,84.82,140.61,102.06,161.03,403.7,Single-ply,SBD,M
Boys,89.81,13,Jonathan Simpson,Frisco Lone Star,86.41,142.88,108.86,138.35,390.09,Single-ply,SBD,M
Boys,99.79,1,Tyler Carver #2,Frisco Wakeland,99.52,206.38,140.61,188.24,535.24,Single-ply,SBD,M
Boys,99.79,2,Keenan Samuel,McKinney,94.8,215.46,108.86,181.44,505.76,Single-ply,SBD,M
Boys,99.79,3,Logan Teel,McKinney North,92.99,183.7,102.06,190.51,476.27,Single-ply,SBD,M
Boys,99.79,4,Emmit Morgan,Frisco Centennial,97.07,185.97,129.27,158.76,474,Single-ply,SBD,M
Boys,99.79,5,Dakata Lincoln,Frisco Wakeland,95.89,179.17,113.4,158.76,451.32,Single-ply,SBD,M
Boys,99.79,6,Luke Carlton,Richardson Pearce,92.53,142.88,92.99,195.04,430.91,Single-ply,SBD,M
Boys,99.79,7,Isaac Luviano,McKinney,95.71,149.69,102.06,172.37,424.11,Single-ply,SBD,M
Boys,99.79,8,Tyler Farguson,McKinney Boyd,92.08,151.95,92.99,174.63,419.57,Single-ply,SBD,M
Boys,99.79,9,John Calhoun,McKinney,96.16,142.88,74.84,185.97,403.7,Single-ply,SBD,M
Boys,99.79,10,Dolan Mottar,Frisco,99.34,158.76,99.79,124.74,383.29,Single-ply,SBD,M
Boys,99.79,11,Ben Briggs,Richardson Pearce,92.53,124.74,79.38,142.88,347,Single-ply,SBD,M
Boys,99.79,12,Collin Yang,Frisco Heritage,95.25,115.67,65.77,129.27,310.71,Single-ply,SBD,M
Boys,99.79,DQ,Chris Robinson #6,Frisco,94.35,,,,,Single-ply,SBD,M
Boys,109.77,1,Isaiah Hinton,Lewisville The Colony,102.01,265.35,158.76,235.87,659.98,Single-ply,SBD,M
Boys,109.77,2,Jeremy Seligsohn,Frisco Wakeland,107.55,219.99,113.4,195.04,528.44,Single-ply,SBD,M
Boys,109.77,3,Alex Nguyen,Frisco,109.32,192.78,129.27,188.24,510.29,Single-ply,SBD,M
Boys,109.77,4,Lance Williams,Allen,108.41,195.04,124.74,188.24,508.02,Single-ply,SBD,M
Boys,109.77,5,Phillip Smith,Frisco Liberty,105.41,190.51,142.88,172.37,505.76,Single-ply,SBD,M
Boys,109.77,6,Alex Gilani,Frisco Liberty,108.5,192.78,92.99,192.78,478.54,Single-ply,SBD,M
Boys,109.77,7,Uche Ugwanze,McKinney North,108.86,204.12,90.72,183.7,478.54,Single-ply,SBD,M
Boys,109.77,8,Alex Shaheen,McKinney Boyd,102.1,181.44,108.86,181.44,471.74,Single-ply,SBD,M
Boys,109.77,9,Austin Horton,McKinney North,105.91,190.51,97.52,181.44,469.47,Single-ply,SBD,M
Boys,109.77,10,Hayden Lusk,McKinney Boyd,105.1,165.56,106.59,142.88,415.04,Single-ply,SBD,M
Boys,109.77,11,Cooper Carson,McKinney,107.82,158.76,83.91,165.56,408.23,Single-ply,SBD,M
Boys,109.77,12,Josh Williams,McKinney Boyd,106.05,142.88,86.18,149.69,378.75,Single-ply,SBD,M
Boys,109.77,13,Blake Graves,Frisco,102.51,131.54,97.52,124.74,353.8,Single-ply,SBD,M
Boys,109.77,14,Jordan Noriega,Frisco,104.14,115.67,,,115.67,Single-ply,S,M
Boys,124.74,1,Donavan White,Princeton,116.35,249.48,133.81,249.48,632.76,Single-ply,SBD,M
Boys,124.74,2,Tyran McClenden,Allen,110.9,240.4,124.74,222.26,587.4,Single-ply,SBD,M
Boys,124.74,3,John Clark,Allen,120.93,251.74,129.27,204.12,585.13,Single-ply,SBD,M
Boys,124.74+,4,Dominic Cabrera,Frisco Wakeland,124.83,215.46,120.2,174.63,510.29,Single-ply,SBD,M
Boys,124.74,5,Jeff Forst,Frisco Heritage,111.81,167.83,88.45,172.37,428.64,Single-ply,SBD,M
Boys,124.74,6,Lohit Adusumilli,Frisco Heritage,112.26,133.81,92.99,147.42,374.21,Single-ply,SBD,M
Boys,124.74,DQ,Jonathon Schuster,McKinney,112.72,149.69,,,,Single-ply,SBD,M
Boys,124.74+,1,Daniel Kim,Lewisville The Colony,127.41,226.8,136.08,213.19,576.06,Single-ply,SBD,M
Boys,124.74+,2,Price Samford,Allen,132.36,226.8,138.35,210.92,576.06,Single-ply,SBD,M
Boys,124.74+,3,Jake Anthony,Richardson Pearce,125.83,192.78,111.13,183.7,487.61,Single-ply,SBD,M
Boys,124.74+,4,Preston Morgan,Frisco,139.57,174.63,106.59,156.49,437.72,Single-ply,SBD,M
Boys,124.74+,5,Serrano Rafael,McKinney Boyd,131.31,165.56,115.67,147.42,428.64,Single-ply,SBD,M
Boys,124.74+,6,Ryan Sheets,McKinney North,139.25,102.06,52.16,108.86,263.08,Single-ply,SBD,M
