Division,WeightClassKg,Place,Name,Team,BodyweightKg,Best3SquatKg,Best3BenchKg,Best3DeadliftKg,TotalKg,Equipment,Event,Sex,BirthDate
Boys,51.71,1,Keaton Whitehead,Normangee,45.86,90.72,45.36,95.25,231.33,Single-ply,SBD,M,
Boys,55.79,1,Herschel Conway,Somerville,54.84,136.08,99.79,127.01,362.87,Single-ply,SBD,M,
Boys,55.79,2,Abiel Trigueros,Jewett Leon,54.3,120.2,65.77,136.08,322.05,Single-ply,SBD,M,
Boys,55.79,3,Javier Zarate,Normangee,55.25,102.06,49.9,113.4,265.35,Single-ply,SBD,M,
Boys,59.87,1,Verkobe Woodberry,Somerville,59.6,158.76,81.65,190.51,430.91,Single-ply,SBD,M,
Boys,59.87,2,Liam Gale,Normangee,59.01,120.2,72.57,129.27,322.05,Single-ply,SBD,M,
Boys,59.87,3,Richard Ross,Normangee,59.69,122.47,63.5,129.27,315.25,Single-ply,SBD,M,
Boys,59.87,4,Steven Turbyfill,Malakoff Cross Roads,57.15,111.13,65.77,136.08,312.98,Single-ply,SBD,M,
Boys,59.87,5,Derek Lopez,Somerville,59.74,120.2,61.23,122.47,303.91,Single-ply,SBD,M,
Boys,59.87,6,Ivan Jordan,Centerville,59.28,106.59,81.65,113.4,301.64,Single-ply,SBD,M,
Boys,59.87,7,Tristan Himes,Malakoff Cross Roads,56.52,111.13,65.77,120.2,297.1,Single-ply,SBD,M,
Boys,59.87,8,Colton Pearson,Centerville,57.29,111.13,61.23,111.13,283.5,Single-ply,SBD,M,
Boys,67.13,1,Braedon Scott,Madisonville,65.54,181.44,95.25,192.78,469.47,Single-ply,SBD,M,
Boys,67.13,2,Ronnie Mosley,Madisonville,63.41,170.1,79.38,170.1,419.57,Single-ply,SBD,M,
Boys,67.13,3,Anthony Haney,Jewett Leon,63.55,158.76,72.57,181.44,412.77,Single-ply,SBD,M,
Boys,67.13,4,Josh Robinson,Centerville,62.55,136.08,88.45,142.88,367.41,Single-ply,SBD,M,
Boys,67.13,5,Jer'mal Holland,Madisonville,61.73,136.08,79.38,142.88,358.34,Single-ply,SBD,M,
Boys,67.13,6,Zane O'Neil,Normangee,65.63,133.81,74.84,147.42,356.07,Single-ply,SBD,M,
Boys,67.13,7,Kyler Sanders,Franklin,66.04,127.01,90.72,138.35,356.07,Single-ply,SBD,M,
Boys,67.13,8,Carlos Bolaños,Jewett Leon,62.14,136.08,68.04,142.88,347,Single-ply,SBD,M,
Boys,67.13,9,August Adams,Malakoff Cross Roads,63.37,122.47,81.65,138.35,342.46,Single-ply,SBD,M,
Boys,67.13,10,Mark Walker #3,Centerville,64.59,124.74,79.38,129.27,333.39,Single-ply,SBD,M,
Boys,74.84,1,Benjamin Caperton,Madisonville,68.45,170.1,90.72,188.24,449.06,Single-ply,SBD,M,
Boys,74.84,2,Thomas Watson,Franklin,69.4,142.88,90.72,131.54,365.14,Single-ply,SBD,M,
Boys,74.84,3,Kaden Adams #2,Franklin,68.9,136.08,74.84,142.88,353.8,Single-ply,SBD,M,
Boys,74.84,4,Hunter Theiss,Normangee,69.94,145.15,70.31,138.35,353.8,Single-ply,SBD,M,
Boys,82.1,1,Luis Guillen,Jewett Leon,81.47,188.24,127.01,219.99,535.24,Single-ply,SBD,M,
Boys,82.1,2,James Webb,Centerville,79.06,174.63,124.74,199.58,498.95,Single-ply,SBD,M,
Boys,82.1,3,Dd Starnes,Centerville,76.88,179.17,111.13,181.44,471.74,Single-ply,SBD,M,
Boys,82.1,4,Conner Swonke,Madisonville,79.2,174.63,102.06,192.78,469.47,Single-ply,SBD,M,
Boys,82.1,5,Dude West,Centerville,80.83,181.44,102.06,181.44,464.93,Single-ply,SBD,M,
Boys,82.1,6,Deven Green,Somerville,76.66,167.83,102.06,185.97,455.86,Single-ply,SBD,M,
Boys,82.1,7,Braydon Hart,Malakoff Cross Roads,77.66,170.1,99.79,170.1,439.98,Single-ply,SBD,M,
Boys,82.1,8,Zach Taylor,Centerville,79.24,165.56,120.2,154.22,439.98,Single-ply,SBD,M,
Boys,82.1,9,Major Kimbrough,Franklin,76.11,151.95,106.59,165.56,424.11,Single-ply,SBD,M,
Boys,82.1,10,M'Kheilan Woods,Navasota,76.16,147.42,90.72,183.7,421.84,Single-ply,SBD,M,
Boys,82.1,11,Christopher Hickmon,Navasota,81.33,133.81,88.45,165.56,387.82,Single-ply,SBD,M,
Boys,82.1,12,William Reyes,Navasota,81.69,124.74,79.38,161.03,365.14,Single-ply,SBD,M,
Boys,89.81,1,Alex Torres #5,Madisonville,89.27,208.65,113.4,199.58,521.63,Single-ply,SBD,M,
Boys,89.81,2,Caleb Hanks,Somerville,88.04,181.44,111.13,192.78,485.34,Single-ply,SBD,M,
Boys,89.81,3,Cameron Pate,Centerville,88.5,192.78,124.74,165.56,483.08,Single-ply,SBD,M,
Boys,89.81,4,Dylan Blakley,Madisonville,89.58,192.78,79.38,149.69,421.84,Single-ply,SBD,M,
Boys,89.81,5,Case Wells,Normangee,85.18,151.95,83.91,151.95,387.82,Single-ply,SBD,M,
Boys,99.79,1,Levodrick Phillips,Centerville,93.89,215.46,142.88,181.44,539.77,Single-ply,SBD,M,
Boys,99.79,2,Callan Shrode,Jewett Leon,96.71,204.12,117.93,188.24,510.29,Single-ply,SBD,M,
Boys,99.79,3,Eduardo Perez,Navasota,99.34,210.92,106.59,188.24,505.76,Single-ply,SBD,M,
Boys,99.79,4,Andres Tobias,Navasota,99.7,183.7,111.13,188.24,483.08,Single-ply,SBD,M,
Boys,99.79,5,Armando Polanco,Madisonville,99.74,192.78,113.4,174.63,480.81,Single-ply,SBD,M,
Boys,99.79,6,Cemion Smith,Franklin,90.54,190.51,97.52,183.7,471.74,Single-ply,SBD,M,
Boys,99.79,7,Chance Risner,Navasota,94.3,174.63,111.13,183.7,469.47,Single-ply,SBD,M,
Boys,99.79,8,Tyler Sierra,Navasota,91.72,179.17,88.45,188.24,455.86,Single-ply,SBD,M,
Boys,99.79,9,Noah Silcox,Navasota,92.08,147.42,92.99,210.92,451.32,Single-ply,SBD,M,
Boys,99.79,10,Hunter Heacox,Malakoff Cross Roads,96.12,158.76,99.79,192.78,451.32,Single-ply,SBD,M,
Boys,99.79,11,David Romero,Navasota,98.93,161.03,81.65,181.44,424.11,Single-ply,SBD,M,
Boys,99.79,12,Sonny VanKampen,Jewett Leon,99.11,136.08,90.72,142.88,369.68,Single-ply,SBD,M,
Boys,109.77,1,Payton Sprouse,Somerville,106.55,188.24,108.86,192.78,489.88,Single-ply,SBD,M,
Boys,109.77,2,Omar Lopez,Madisonville,105.01,172.37,102.06,208.65,483.08,Single-ply,SBD,M,
Boys,109.77,3,Drew Chavez,Navasota,102.74,165.56,95.25,192.78,453.59,Single-ply,SBD,M,
Boys,109.77,4,Nate Frank,Franklin,103.33,158.76,95.25,147.42,401.43,Single-ply,SBD,M,
Boys,109.77,5,Jacob Arellano,Navasota,103.56,142.88,83.91,156.49,383.29,Single-ply,SBD,M,
Boys,109.77,6,Ethan Curtsinger,Franklin,101.24,147.42,104.33,129.27,381.02,Single-ply,SBD,M,
Boys,109.77,7,Aaron Pratho,Navasota,100.61,88.45,70.31,111.13,269.89,Single-ply,SBD,M,
Boys,109.77,DQ,Michael Guzman,Navasota,109,,65.77,142.88,,Single-ply,SBD,M,
Boys,109.77,DQ,Jaxson Swallow,Jewett Leon,109.27,165.56,,142.88,,Single-ply,SBD,M,
Boys,109.77,DQ,Braylon Cornish,Normangee,104.55,251.74,,,,Single-ply,SBD,M,
Boys,124.74,1,Jose Molina #4,Normangee,110.86,274.42,163.29,231.33,669.05,Single-ply,SBD,M,
Boys,124.74,2,Caden Espinosa,Somerville,119.88,219.99,154.22,249.48,623.69,Single-ply,SBD,M,
Boys,124.74,3,Andrew Narro,Franklin,114.17,240.4,149.69,201.85,591.94,Single-ply,SBD,M,
Boys,124.74,4,Andrew Vasquez,Somerville,111.22,231.33,131.54,192.78,555.65,Single-ply,SBD,M,
Boys,124.74,5,Mathew Sosa,Navasota,113.81,188.24,88.45,197.31,474,Single-ply,SBD,M,
Boys,124.74,6,Cyrus Fuchs,Franklin,115.67,192.78,113.4,165.56,471.74,Single-ply,SBD,M,
Boys,124.74,7,Jace Metzer,Normangee,117.12,181.44,95.25,167.83,444.52,Single-ply,SBD,M,
Boys,124.74,8,Trent Ellison,Franklin,114.53,149.69,86.18,149.69,385.55,Single-ply,SBD,M,
Boys,124.74,9,Darren Edwards,Normangee,117.98,86.18,70.31,97.52,254.01,Single-ply,SBD,M,
Boys,124.74,DQ,Jose Lopez,Navasota,124.56,219.99,,439.98,,Single-ply,SBD,M,
Boys,124.74,DQ,Keith Bohannon,Centerville,120.88,129.27,,120.2,,Single-ply,SBD,M,
Boys,139.71,1,Keaton Crowley,Centerville,126.96,183.7,142.88,183.7,510.29,Single-ply,SBD,M,
Boys,139.71,2,Ethan Julian,Malakoff Cross Roads,127.69,163.29,81.65,136.08,381.02,Single-ply,SBD,M,
Boys,139.71+,1,Cedric Hudgen,Somerville,151.41,215.46,124.74,204.12,544.31,Single-ply,SBD,M,
Boys,139.71+,DQ,Josh Vazquez,Malakoff Cross Roads,147.24,226.8,111.13,,,Single-ply,SBD,M,
Boys,139.71+,DQ,Nate Pedigo,Jewett Leon,233.6,131.54,102.06,,,Single-ply,SBD,M,
