Place,Name,Sex,BirthDate,Age,Equipment,Division,BodyweightKg,WeightClassKg,Squat1Kg,Squat2Kg,Squat3Kg,Best3SquatKg,Bench1Kg,Bench2Kg,Bench3Kg,Best3BenchKg,Deadlift1Kg,Deadlift2Kg,Deadlift3Kg,Best3DeadliftKg,TotalKg,Event
1,Emma Iles,F,2003-12-07,18,Raw,Juniors,59.95,63,90,95,97.5,97.5,45,50,-52.5,50,115,-122.5,122.5,122.5,270,SBD
1,Brooke Rowbotham,F,1999-06-20,22,Raw,Juniors,142.6,84+,155,165,175,175,90,-95,-100,90,140,150,160,160,425,SBD
1,Roshelle Jessop,F,1975-11-09,46,Raw,Masters 1,68.6,69,135,140,-145,140,90,-95.5,,90,165,175,182.5,182.5,412.5,SBD
1,Vienna Jacobs,F,1982-04-22,39,Raw,Masters 1,82.1,84,90,-95,100,100,45,50,52.5,52.5,140,150,160,160,312.5,SBD
1,Natasha Clarke #2,F,1968-10-10,53,Raw,Masters 2,93.8,84+,-127.5,130,140,140,72.5,77.5,80,80,140,150,-157.5,150,370,SBD
1,Megan-Li Smith,F,1996-04-13,25,Raw,Open,51.8,52,142.5,150,155,155,75,77.5,80,80,-165,165,180,180,415,SBD
1,Elsie Petrie-Taylor,F,1998-05-16,23,Raw,Open,66.75,69,127.5,135,-140,135,65,-70,70,70,155,160,-165,160,365,SBD
2,Charlie Hemens,F,1995-07-20,26,Raw,Open,64.55,69,92.5,97.5,-102.5,97.5,50,55,60,60,115,122.5,130,130,287.5,SBD
1,Fiona Nicoll,F,1998-03-03,24,Raw,Open,76,76,147.5,152.5,157.5,157.5,100,-105,105,105,180,-192.5,-193,180,442.5,SBD
2,Chanel Williams,F,1995-11-09,26,Raw,Open,72.45,76,135,142.5,147.5,147.5,92.5,97.5,100,100,155,165,170,170,417.5,SBD
1,Claire Nunan,F,1993-08-03,28,Raw,Open,83.45,84,162.5,172.5,177.5,177.5,102.5,107.5,111,111,193.5,205.5,-211.5,205.5,494,SBD
2,Nina Chambers,F,1992-09-30,29,Raw,Open,83.05,84,112.5,120,125,125,-80,80,85,85,150,160,170,170,380,SBD
3,Amanda Stilwell,F,1988-07-07,33,Raw,Open,82.75,84,110,117.5,-125,117.5,62.5,-65,-65,62.5,150,157.5,165,165,345,SBD
1,Ellen Pryor,F,1991-02-10,31,Raw,Open,93.9,84+,100,110,-112.5,110,-55,62.5,-65,62.5,-110,117.5,122.5,122.5,295,SBD
1,Lockie Richards,M,2000-10-08,21,Raw,Juniors,65.9,66,-157.5,-157.5,157.5,157.5,95,-100.5,100.5,100.5,200,-210,-210,200,458,SBD
2,Aqeel Isaacs,M,2003-06-04,18,Raw,Juniors,64.35,66,127.5,135,-142.5,135,82.5,87.5,-92.5,87.5,171,177.5,185,185,407.5,SBD
1,Ben Calder-Lee,M,2001-09-10,20,Raw,Juniors,73.5,74,217.5,230,-240,230,142,-148,148,148,235,250,260,260,638,SBD
2,Dylan Bellam,M,2001-06-12,20,Raw,Juniors,73.85,74,170,180,-185,180,100,105,-110,105,222.5,-235,-235,222.5,507.5,SBD
3,Josh Stoddard,M,2000-08-02,21,Raw,Juniors,73.25,74,160,175,190,190,105,112.5,117.5,117.5,165,185,-195,185,492.5,SBD
1,Adam Cragg,M,2003-05-14,18,Raw,Juniors,80.85,83,175,185,195,195,100,107.5,112.5,112.5,217.5,230,-240,230,537.5,SBD
2,Samuel Henderson,M,2002-07-30,19,Raw,Juniors,82.1,83,175,-185,-190,175,110,115,120,120,175,185,-190,185,480,SBD
3,Suda Malla,M,2001-09-19,20,Raw,Juniors,81.25,83,142.5,152.5,160,160,80,85,90,90,185,195,205,205,455,SBD
1,MacDonald Munyaka,M,1999-03-06,23,Raw,Juniors,91.1,93,210,225,235,235,165,180,185,185,280,295,300,300,720,SBD
2,Andre Oreta,M,,,Raw,Juniors,92.2,93,212.5,225,232.5,232.5,130,137.5,145,145,235,250,260,260,637.5,SBD
3,Harry Newman,M,2001-06-07,20,Raw,Juniors,92.3,93,212.5,227.5,-235,227.5,142.5,150,155,155,230,245,255,255,637.5,SBD
4,Peter Anderson,M,2002-02-22,20,Raw,Juniors,91.2,93,170,-180,187.5,187.5,117.5,125,-130,125,200,212.5,-225,212.5,525,SBD
5,Hunter Corbett,M,2003-03-10,19,Raw,Juniors,87.4,93,135,145,-155,145,65,70,72.5,72.5,165,175,192.5,192.5,410,SBD
DQ,Clinton Walker,M,2001-01-11,21,Raw,Juniors,87.6,93,135,147.5,-155,147.5,-107.5,-110,-110,,-170,177.5,185,185,,SBD
1,Quintin Dickerson-Gillett,M,2001-12-23,20,Raw,Juniors,104.8,105,220,235,245,245,157.5,165,170,170,270,285,-300,285,700,SBD
2,Remy McDonald,M,1999-10-31,22,Raw,Juniors,97.35,105,-195,-205,205,205,120,127.5,-132.5,127.5,240,255,260,260,592.5,SBD
1,Scotty Wilder,M,1975-09-24,46,Raw,Masters 1,76.45,83,-140,140,147.5,147.5,100,105,110,110,195,205,-220,205,462.5,SBD
1,Matt James #1,M,1980-05-11,41,Raw,Masters 1,90.6,93,155,165,-175,165,80,85,92.5,92.5,200,210,220,220,477.5,SBD
1,Byron Vili,M,1973-07-06,48,Raw,Masters 1,104.75,105,140,150,155,155,112.5,120,125,125,215,230,240,240,520,SBD
1,Jason Smith,M,1974-09-12,47,Raw,Masters 1,116.55,120,150,160,170,170,100,105,110,110,180,190,200,200,480,SBD
1,Craig Smith #1,M,1978-07-12,43,Raw,Masters 1,135.65,120+,180,195,205,205,140,152.5,160,160,250,270,-275,270,635,SBD
1,Gregory Crutch,M,1969-04-18,52,Raw,Masters 2,71.1,74,100,105,110,110,62.5,65,67.5,67.5,125,130,-135,130,307.5,SBD
1,Michael Murray #1,M,1993-08-19,28,Raw,Open,58.8,59,142.5,155,-162.5,155,90,97.5,100,100,180,192.5,-200,192.5,447.5,SBD
1,Emmanuel James Bautista,M,1991-03-07,31,Raw,Open,73.1,74,-200,210,215,215,142.5,147.5,-150,147.5,265,275,-285,275,637.5,SBD
2,Francis Ahlers-Simpson,M,1995-04-09,27,Raw,Open,73.9,74,170,177.5,182.5,182.5,107.5,112.5,120,120,202.5,215,225,225,527.5,SBD
3,Renz Adrian Monsanto,M,1997-09-07,24,Raw,Open,72.05,74,152.5,160,165,165,75,80,85,85,200,212.5,220,220,470,SBD
1,Nathan Vaughan,M,1985-10-09,36,Raw,Open,80.05,83,125,135,145,145,110,120,125,125,160,175,185,185,455,SBD
1,Jamie King #1,M,1993-08-06,28,Raw,Open,92.6,93,260,280,290,290,160,167.5,173,173,295,315,330,330,793,SBD
2,Dorjee Lama,M,1997-02-13,25,Raw,Open,90.5,93,210,-222.5,230,230,135,140,145,145,237.5,255,-265,255,630,SBD
3,Chris Pickup,M,1984-12-13,37,Raw,Open,92.35,93,210,217.5,-222.5,217.5,125,130,-132.5,130,240,252.5,262.5,262.5,610,SBD
4,Daniel de Silva,M,1994-09-14,27,Raw,Open,92.7,93,205,215,220,220,127.5,135,140,140,220,235,250,250,610,SBD
5,Luke Payne,M,1998-08-17,23,Raw,Open,90.45,93,195,205,215,215,135,142.5,-150,142.5,225,-240,-240,225,582.5,SBD
6,Benedict De Jesus,M,1998-03-25,24,Raw,Open,89.45,93,132.5,140,145,145,95,97.5,100,100,160,172.5,182.5,182.5,427.5,SBD
1,Maui Koopu,M,1997-05-25,24,Raw,Open,104.35,105,285,297.5,-305.5,297.5,180,188,192.5,192.5,285,300,-310,300,790,SBD
2,Edward Dawkins,M,1989-07-11,32,Raw,Open,103.8,105,250,-265,270,270,150,160,-170,160,275,292.5,302.5,302.5,732.5,SBD
3,Finn Edmonds,M,1995-03-10,27,Raw,Open,102.2,105,230,-240,-240,230,-130,130,-140,130,245,255,262.5,262.5,622.5,SBD
4,Mickey Pabbi,M,,,Raw,Open,102.5,105,165,-175,175,175,100,-107.5,110,110,165,175,-185,175,460,SBD
G,Vlad Barbu,M,1998-04-06,24,Raw,Open,102,105,150,160,167.5,167.5,95,100,105,105,190,202.5,210,210,482.5,SBD
1,Jonathan Munro,M,1995-03-29,27,Raw,Open,118.75,120,255,-270,272.5,272.5,152.5,160,165,165,255,267.5,272.5,272.5,710,SBD
2,Dean Jones,M,1985-03-17,37,Raw,Open,117.45,120,-232.5,232.5,242.5,242.5,-112.5,112.5,120,120,235,250,-262.5,250,612.5,SBD
3,Sam Murphy #4,M,1990-01-04,32,Raw,Open,115,120,-190,190,207.5,207.5,130,137.5,145,145,200,217.5,232.5,232.5,585,SBD
1,Marc Franz Calzada,M,2004-09-29,17,Raw,Sub-Juniors,64.7,66,145,155,-165,155,80,85,-90,85,170,-180,-180,170,410,SBD
1,Ollie Bubb,M,2005-12-07,16,Raw,Sub-Juniors,70.15,74,125,135,140,140,82.5,87.5,92.5,92.5,177.5,190,-200,190,422.5,SBD
2,Caleb Campbell,M,2005-03-13,17,Raw,Sub-Juniors,68.55,74,135,-137.5,-152.5,135,55,62.5,-70,62.5,145,157.5,165,165,362.5,SBD
3,Arthur Chambers,M,2005-04-21,16,Raw,Sub-Juniors,73.1,74,105,-115,-122.5,105,82.5,87.5,-90,87.5,145,155,162.5,162.5,355,SBD
1,Zachariah Cummings,M,2004-04-10,17,Raw,Sub-Juniors,82,83,225,235,240,240,120,122.5,130,130,245,265,-272.5,265,635,SBD
1,Richy George,M,1979-04-15,42,Raw,Masters 1,112,120,,,,,180,190,200,200,,,,,200,B
1,Steve Pawson,M,1967-01-23,55,Raw,Masters 2,146.8,120+,,,,,165,-177.5,180,180,,,,,180,B
1,Neil Barton,M,1960-12-27,61,Raw,Masters 3,99.95,105,,,,,-75,75,90,90,,,,,90,B
1,Ian Swinnen,M,1990-05-26,31,Raw,Open,117.5,120,,,,,152.5,160,-162.5,160,,,,,160,B
