Name,Sex,Age,BodyweightKg,WeightClassKg,Division,Equipment,Event,Bench1Kg,Bench2Kg,Bench3Kg,Bench4Kg,Best3BenchKg,Deadlift1Kg,Deadlift2Kg,Deadlift3Kg,Deadlift4Kg,Best3DeadliftKg,TotalKg,Place,Country
Savannah Hughes,F,21,54.9,55.5,F-JR,Raw,BD,32.5,35,37.5,,37.5,80,85,90,,90,127.5,1,UK
Claire Jackson,F,26,55.2,55.5,F-O,Raw,BD,35,40,-45.5,,40,-80,-80,80,,80,120,2,Scotland
Karen Dalziel,F,36,58.1,58.5,F-O,Raw,BD,70,-75,-75,,70,150,155,160,,160,230,1,Scotland
Laura Tadrowski,F,34,62.8,63,F-O,Raw,BD,55,60,-62.5,,60,110,120,125,,125,185,1,Scotland
Siobhan Marmion,F,25,62.6,63,F-O,Raw,BD,55,57.5,-60,,57.5,100,107.5,112.5,,112.5,170,2,Scotland
Gail Nicol,F,43,61.4,63,F-M1,Raw,BD,-37.5,-42.5,42.5,,42.5,77.5,85,92.5,,92.5,135,3,Scotland
Hazel Coogan,F,21,59.8,63,F-JR,Raw,D,,,,,,90,100,-110,,100,100,1,Scotland
Ruth Allen,F,42,70,70,F-M1,Raw,BD,70,80,85,,85,145,155,165,,165,250,1,Scotland
Liz Dingley,F,55,63.7,70,F-M4,Raw,BD,47.5,50,52.5,,52.5,115,120,127.5,,127.5,180,2,Scotland
Carol McLean,F,41,66.8,70,F-M1,Raw,BD,40,45,-47.5,,45,120,127.5,132.5,,132.5,177.5,3,Scotland
Ellen Harrison,F,52,68.5,70,F-M3,Raw,BD,35,40,-45,,40,80,95,105,,105,145,4,UK
Beccy Stephenson,F,31,67.8,70,F-O,Raw,D,,,,,,100,110,120,,120,120,1,Scotland
Joanne Hind,F,44,69.6,70,F-M1,Raw,D,,,,,,70,85,100,,100,100,2,Scotland
Mary Anderson,F,48,78.5,80,F-M2,Single-ply,BD,110,115,120,,120,185,200,210,,210,330,1,Scotland
Emma Williams #3,F,27,71.8,80,F-O,Raw,BD,75,80,-82.5,,80,142.5,147.5,150,,150,230,1,Scotland
Derek Budd,M,29,87,90,M-O,Raw,BD,115,122.5,130,,130,220,235,-250,,235,365,1,Scotland
Sarah Allison,F,30,91.4,90+,F-O,Raw,BD,-65,65,72.5,,72.5,115,125,135,,135,207.5,1,Scotland
Ruth Gardner,F,41,118.5,90+,F-M1,Raw,BD,60,65,-67.5,,65,120,125,132.5,,132.5,197.5,2,Scotland
Corrina Cross,F,41,98.9,90+,F-M1,Raw,BD,35,40,-50,,40,95,100,112.5,,112.5,152.5,3,UK
Peter Armstrong,M,25,66.4,67.5,M-O,Raw,BD,65,70,77.5,,77.5,150,160,170,,170,247.5,1,Scotland
Mike Wade #1,M,71,66.8,67.5,M-M7,Raw,B,77.5,-82,82.5,-83,82.5,,,,,,82.5,1,Scotland
Chris Empson,M,30,74.8,75,M-O,Single-ply,BD,-150,160,-165,,160,215,230,-235,,230,390,1,Scotland
Alistair Burns,M,31,74.8,75,M-O,Raw,BD,110,117.5,-122.5,,117.5,190,207.5,-212.5,,207.5,325,1,Scotland
Sam Fowler #2,M,28,72,75,M-O,Raw,BD,85,90,95,,95,200,215,222.5,,222.5,317.5,2,Scotland
Declan Ennis,M,23,70.2,75,M-JR,Raw,BD,90,100,105,,105,170,185,195,,195,300,3,Scotland
Paddy Jumelle,M,39,69.6,75,M-O,Raw,BD,100,-105,105,,105,150,165,-170,,165,270,4,Scotland
Alan Brindley,M,66,72.8,75,M-M6,Raw,BD,40,-42.5,42.5,,42.5,100,110,115,,115,157.5,5,UK
Mark Fulton,M,35,81.8,82.5,M-O,Raw,BD,110,-117.5,117.5,,117.5,210,217.5,225,,225,342.5,1,Scotland
Ross Jackson,M,28,82,82.5,M-O,Raw,BD,105,-110,-110,,105,205,225,-235,,225,330,1,Scotland
Jonathan Sinclair,M,33,82,82.5,M-O,Raw,BD,100,110,115,,115,150,162.5,172.5,,172.5,287.5,2,Scotland
Rauraidh Purnell,M,24,88.2,90,M-O,Raw,BD,110,120,-125,,120,200,-210,220,,220,340,2,Scotland
Anderw Hainey,M,24,89.6,90,M-O,Raw,BD,95,105,-110,,105,200,-215,215,,215,320,3,Scotland
Michael Phillips,M,61,84.5,90,M-M5,Single-ply,D,,,,,,215,-232.5,,,215,215,1,Scotland
Derek Fowler,M,50,89,90,M-M3,Raw,BD,50,60,-65,,60,105,115,125,,125,185,4,UK
Catherine West,F,47,80.9,90,F-M2,Raw,BD,37.5,42.5,-50,,42.5,90,100,-110,,100,142.5,1,UK
Chris Martin,M,39,99,100,M-O,Raw,BD,152.5,157.5,-162.5,,157.5,230,240,-245,,240,397.5,1,Scotland
Tom Moffat,M,44,95.2,100,M-M1,Single-ply,BD,140,150,160,,160,220,-240,-240,,220,380,1,Scotland
Arthur Cowley,M,56,100,100,M-M4,Raw,BD,132.5,140,-145,,140,227.5,240,-250,,240,380,2,Scotland
Lee Butler,M,32,98,100,M-O,Raw,BD,120,130,-145,,130,230,240,-250,,240,370,3,Scotland
Ryan Stewart #3,M,20,92.4,100,M-JR,Raw,BD,130,135,140,,140,205,215,225,,225,365,4,Scotland
Joshua-Paul Lancaster,M,25,96.8,100,M-O,Raw,BD,115,120,-125,,120,215,227.5,-240,,227.5,347.5,5,UK
Kyle Love,M,18,92,100,M-T3,Raw,BD,115,120,-125,,120,210,-220,-220,,210,330,6,Scotland
Robert Kirkpatrick,M,28,96.8,100,M-O,Raw,BD,120,125,-130,,125,-250,-250,,,,,DQ,Scotland
Chris FuScotland,M,29,101,110,M-O,Raw,BD,85,90,95,,95,145,150,160,,160,255,1,Scotland
Richard Michael Hall,M,28,106,110,M-O,Raw,B,-165,170,-177.5,,170,,,,,,170,1,Scotland
John Graty Wright,M,53,124.8,125,M-M3,Single-ply,BD,160,-170,170,,170,180,200,-212.5,,200,370,1,Scotland
Chris Charnley,M,19,114,125,M-T3,Raw,BD,135,140,-150,,140,195,205,-215,,205,345,1,Scotland
Morgan Evans,M,16,133.8,145,M-T2,Raw,BD,45,60,-70,,60,110,130,-150,,130,190,1,UK
